…
# 把dt按照编号排序
dt[order(dt$Num),]

# 查看表
View(dt)
```

得到的表如下：

```
# A tibble: 260 x 6
   单位    学号 姓名  笔记本数量 Num    value
   <chr>  <dbl> <chr>      <dbl> <chr>  <dbl>
 2 单位1    82 张三           8 编号2  13557
 1 单位1    82 张三           8 编号1  19257
 3 单位1    82 张三           8 编号3  19923
 4 单位1    82 张三           8 编号4   8725
 5 单位1    82 张三           8 编号5   9878
 6 单位1    82 张三           8 编号6   9425
 7 单位1    82 张三           8 编号7  18871
 8 单位1    82 张三           8 编号8  19394
 9 单位1    82 张三           8 编号9     NA
10 单位1    82 张三           8 编号10    NA
# ... with 250 more rows
```
…
